{
  "model": {
    "conv": {
      "model_arch": "SmallNet"
    },
    "classifier": {
      "main": {
        "model_arch": "MLP",
        "dims": [512, 2]
      }
    }
  },
  "device": "GPU",
  "dataset": {
    "name": "cifar-10",
    "one_vs_all": 0,
    "training_limit": -1,
    "test_limit": -1
  },
  "checkpoint_file": "small_net_checkpoint.pt",
  "batch_size": 128,
  "reports_per_epoch": 10,
  "n_iterations": 1000,
  "step": 0.001
}